<?xml version="1.0" encoding="iso-8859-1"?>
<!-- Generator: Adobe Illustrator 18.0.0, SVG Export Plug-In . SVG Version: 6.00 Build 0)  -->
<!DOCTYPE svg PUBLIC "-//W3C//DTD SVG 1.1//EN" "http://www.w3.org/Graphics/SVG/1.1/DTD/svg11.dtd">
<svg version="1.1" id="Capa_1" xmlns="http://www.w3.org/2000/svg" xmlns:xlink="http://www.w3.org/1999/xlink" x="0px" y="0px"
	 viewBox="0 0 294.401 294.401" style="enable-background:new 0 0 294.401 294.401;" xml:space="preserve">
<g>
	<path d="M222.708,206.863v55.164H30V193.54h82.092l-22.518-22.518c-2.301-2.301-4.312-4.812-6.036-7.482H15
		c-8.284,0-15,6.716-15,15v98.487c0,8.284,6.716,15,15,15h222.708c8.284,0,15-6.716,15-15V178.54c0-0.538-0.031-1.068-0.086-1.591
		L222.708,206.863z"/>
	<path d="M174.062,128.231l27.37-27.37h-56.467c2.957,1.826,5.728,4.001,8.247,6.52L174.062,128.231z"/>
	<path d="M45,130.861h32.168c1.649-8.844,5.906-16.983,12.404-23.48c2.519-2.519,5.29-4.694,8.247-6.52H60V32.374h162.708v47.21
		l24.873-24.873c1.613-1.613,3.327-3.086,5.127-4.418V17.374c0-8.284-6.716-15-15-15H45c-8.284,0-15,6.716-15,15v98.487
		C30,124.145,36.716,130.861,45,130.861z"/>
	<path d="M290.007,75.924c-5.857-5.857-15.355-5.857-21.213,0l-23.683,23.683l-71.049,71.049l-42.063-42.063
		c-5.857-5.857-15.355-5.857-21.213,0c-3.662,3.661-5.035,8.744-4.119,13.472c0.549,2.836,1.922,5.545,4.119,7.741l52.67,52.67
		c5.784,5.784,15.306,5.907,21.213,0l79.004-79.004l26.335-26.335c1.831-1.83,3.089-4.016,3.776-6.336
		C295.293,85.699,294.034,79.951,290.007,75.924z"/>
</g>
<g>
</g>
<g>
</g>
<g>
</g>
<g>
</g>
<g>
</g>
<g>
</g>
<g>
</g>
<g>
</g>
<g>
</g>
<g>
</g>
<g>
</g>
<g>
</g>
<g>
</g>
<g>
</g>
<g>
</g>
</svg>
