<?xml version="1.0" encoding="iso-8859-1"?>
<!-- Generator: Adobe Illustrator 18.0.0, SVG Export Plug-In . SVG Version: 6.00 Build 0)  -->
<!DOCTYPE svg PUBLIC "-//W3C//DTD SVG 1.1//EN" "http://www.w3.org/Graphics/SVG/1.1/DTD/svg11.dtd">
<svg version="1.1" id="Capa_1" xmlns="http://www.w3.org/2000/svg" xmlns:xlink="http://www.w3.org/1999/xlink" x="0px" y="0px"
	 viewBox="0 0 332.721 332.721" style="enable-background:new 0 0 332.721 332.721;" xml:space="preserve">
<g>
	<path d="M80.415,144.507c0-26.619,21.663-48.27,48.282-48.27c26.617,0,48.27,21.65,48.27,48.27c0,6.02-1.117,11.781-3.139,17.1
		h62.13c0.886-5.574,1.353-11.283,1.353-17.1c0-7.662-0.802-15.127-2.312-22.342l19.359-17.197c3.188-2.836,3.949-7.521,1.82-11.221
		L236.383,59.47c-2.134-3.697-6.57-5.383-10.63-4.039l-24.643,8.193c-11.074-9.912-24.18-17.6-38.606-22.334l-5.222-25.383
		c-0.859-4.178-4.535-7.184-8.807-7.184h-39.582c-4.26,0-7.947,3.006-8.804,7.184l-5.223,25.389
		c-14.427,4.734-27.53,12.424-38.592,22.346l-24.655-8.195c-4.047-1.35-8.491,0.342-10.63,4.043L1.204,93.759
		c-2.13,3.697-1.378,8.391,1.817,11.229l19.373,17.199c-1.511,7.211-2.31,14.674-2.31,22.32c0,7.648,0.799,15.125,2.312,22.338
		l-19.36,17.197c-3.19,2.84-3.954,7.523-1.819,11.219l19.795,34.281c2.134,3.699,6.569,5.383,10.615,4.041l24.656-8.195
		c11.064,9.914,24.176,17.6,38.607,22.334l5.208,25.383c0.871,4.18,4.547,7.182,8.817,7.184h30.613v-88.752
		c-3.484,0.801-7.107,1.24-10.832,1.24C102.078,192.777,80.415,171.124,80.415,144.507z"/>
	<path d="M324.644,174.329H160.328c-4.454,0-8.077,3.621-8.077,8.074v133.518c0,4.453,3.623,8.076,8.077,8.076h164.316
		c4.454,0,8.077-3.623,8.077-8.076V182.404C332.721,177.95,329.098,174.329,324.644,174.329z M309.408,301.542H175.564v-80.424
		h133.844V301.542z"/>
	<path d="M226.979,284.734c1.831,1.834,4.268,2.844,6.859,2.844s5.028-1.01,6.858-2.844l35.168-35.168
		c3.78-3.781,3.78-9.932,0-13.715c-1.831-1.832-4.268-2.842-6.858-2.842c-2.59,0-5.026,1.01-6.859,2.842l-28.309,28.311
		l-11.014-11.012c-1.833-1.834-4.27-2.844-6.859-2.844c-2.591,0-5.027,1.01-6.858,2.844c-3.779,3.781-3.779,9.932,0,13.709
		L226.979,284.734z"/>
</g>
<g>
</g>
<g>
</g>
<g>
</g>
<g>
</g>
<g>
</g>
<g>
</g>
<g>
</g>
<g>
</g>
<g>
</g>
<g>
</g>
<g>
</g>
<g>
</g>
<g>
</g>
<g>
</g>
<g>
</g>
</svg>
