<?xml version="1.0" encoding="iso-8859-1"?>
<!-- Generator: Adobe Illustrator 16.0.0, SVG Export Plug-In . SVG Version: 6.00 Build 0)  -->
<!DOCTYPE svg PUBLIC "-//W3C//DTD SVG 1.1//EN" "http://www.w3.org/Graphics/SVG/1.1/DTD/svg11.dtd">
<svg version="1.1" id="Capa_1" xmlns="http://www.w3.org/2000/svg" xmlns:xlink="http://www.w3.org/1999/xlink" x="0px" y="0px"
	 width="62.954px" height="62.954px" viewBox="0 0 62.954 62.954" style="enable-background:new 0 0 62.954 62.954;"
	 xml:space="preserve">
<g>
	<g>
		<path d="M60.88,36.42l-14.442,0.014c0.122-1.352,0.047-3.014,0.02-5.638c-0.055-4.985-1.615-6.449-5.186-11.403
			c-2.379-3.3-2.143-5.534-4.399-6.641c-1.209-0.556-2.395-0.744-3.262-0.8c-0.195-0.013-0.374-0.02-0.533-0.022
			c-0.38-0.003-0.629,0.014-0.722,0.024c-0.178,0-0.377,0.003-0.568,0.006v-0.002l-0.831,0.008l-0.983,0.01l-0.53,0.005l-0.002-0.01
			c-0.159,0-0.313,0-0.467,0c-7.252,0-8.605-0.341-14.232-0.652C8.625,10.981,4.311,9.178,4.311,9.178S-1.921,21.67,0.602,22.31
			c2.524,0.64,5.202,2.674,5.202,2.674c6.239,5.598,18.74,8.178,16.547,8.18c-2.193,0.002-2.97,0.295-3.369,2.484
			c-0.399,2.188,4.954,2.384,4.954,2.384s-0.432,0.756-0.04,2.73c0.117,0.586,0.85,0.793,1.823,0.793
			c2.304,0,5.953-1.154,5.953-1.154s-1.654,2.492,0.971,3.415c0.369,0.13,0.697,0.186,0.993,0.186c1.421,0,2.071-1.266,2.542-1.764
			c0.114-0.122,0.222-0.212,0.322-0.212c0.016,0,0.03,0.002,0.044,0.005c0.115,0.025,0.261,0.072,0.414,0.125
			c0.249,0.086,0.525,0.195,0.781,0.304c0.441,0.185,0.812,0.357,0.812,0.357c1.212,0.566,2.139,0.785,2.844,0.785
			c2.414,0,2.262-2.56,2.262-2.56s0.269-1.254-0.712-3.044c-0.137-0.25-0.301-0.512-0.492-0.781
			c-0.179-0.254-0.378-0.514-0.613-0.78c-0.79-0.904-1.906-1.878-3.494-2.857c-6.131-3.783-6.735-5.658-6.735-5.658
			c0.127-1.712,1.216-2.149,2.298-2.149c0.35,0,0.697,0.047,1.012,0.109c0.203,0.101,0.412,0.22,0.624,0.346
			c0.196,0.117,0.394,0.24,0.594,0.372c1.812,1.203,3.645,2.92,3.802,3.069l0.076,0.421c0.255,0.731,0.356,1.441,0.373,2.047
			l0.333,1.835c1.073,0.847,1.862,1.68,2.442,2.464c0.196,0.267,0.373,0.527,0.524,0.78c0.16,0.268,0.304,0.53,0.419,0.781
			l2.057-0.002l14.712-0.014c0.273,0,0.497,0.233,0.497,0.52l0.008,6.972l-23.638,0.022l-0.002-1.901
			c-0.253-0.11-0.527-0.227-0.781-0.326c-0.075-0.028-0.152-0.061-0.221-0.086c-0.012,0.017-0.024,0.032-0.035,0.047
			c-0.138,0.178-0.313,0.397-0.524,0.621l0.008,7.847c0.001,1.147,0.926,2.081,2.061,2.081h0.001l22.645-0.021
			c1.135-0.002,2.06-0.936,2.059-2.085L62.94,38.5C62.939,37.354,62.017,36.42,60.88,36.42z M61.39,49.736l0.002,1.936
			c0,0.286-0.223,0.521-0.497,0.521L38.25,52.214c-0.274,0-0.498-0.233-0.498-0.521l-0.002-1.935L61.39,49.736z"/>
	</g>
</g>
<g>
</g>
<g>
</g>
<g>
</g>
<g>
</g>
<g>
</g>
<g>
</g>
<g>
</g>
<g>
</g>
<g>
</g>
<g>
</g>
<g>
</g>
<g>
</g>
<g>
</g>
<g>
</g>
<g>
</g>
</svg>
